﻿{
 "$schema": "http://json-schema.org/draft-04/schema#",
 "title": "papers",
 "description": "List of Ukrainian papers",
 "type": "array",
 "items":{
   "type": "object",
   "properties": {
     "paperCode": {
       "description": "Unique identity for paper",
       "type": "number",
       "minimum":1
       },
      "name": {
        "description": "name of paper",
        "type": "string"
       },
      "type": {
        "description": "type of paper",
        "type": "string",
        "enum": ["Newspaper", "Magazine", "Booklet"]
       },
      "monthly": {
        "description": "is paper issued every month",
        "type": "boolean"
       },
      "chars": {
        "description": "characteristics of paper",
        "type": "object",
        "properties":{
          "color": {
            "description": "is paper published in color",
            "type": "boolean"
          },
          "glossy": {
            "description": "is paper published glossy",
            "type": "boolean"
          },
          "size": {
            "description": "the paper size by pages",
            "type": "number"
          },
          "subscriptIndex": {
            "description": "the description of paper index",
            "type": "object",
            "properties":{
               "hasIndex": {
                 "description": "does paper has subscription index - no for booklet",
                 "type": "boolean"
               },
                "index": {
                  "description": "the paper index for subscription, if so",
                  "type": [ "number", "null"]
               }
             },
               "required":["hasIndex"]
           }
         }
       }
     },
     "required": ["paperCode", "name", "type","monthly"]
   }
 }